C:\Users\rares\Desktop\Facultate\AN4SEM1\DS\Lab\Assignment4\Implementation\Java\package\src\main\java\data\PackageDAO.java
C:\Users\rares\Desktop\Facultate\AN4SEM1\DS\Lab\Assignment4\Implementation\Java\package\src\main\java\data\TrackDAO.java
C:\Users\rares\Desktop\Facultate\AN4SEM1\DS\Lab\Assignment4\Implementation\Java\package\src\main\java\data\ConnectionFactory.java
C:\Users\rares\Desktop\Facultate\AN4SEM1\DS\Lab\Assignment4\Implementation\Java\package\src\main\java\entities\Package.java
C:\Users\rares\Desktop\Facultate\AN4SEM1\DS\Lab\Assignment4\Implementation\Java\package\src\main\java\services\TrackService.java
C:\Users\rares\Desktop\Facultate\AN4SEM1\DS\Lab\Assignment4\Implementation\Java\package\src\main\java\services\PackageServiceImpl.java
C:\Users\rares\Desktop\Facultate\AN4SEM1\DS\Lab\Assignment4\Implementation\Java\package\src\main\java\services\TrackServiceImpl.java
C:\Users\rares\Desktop\Facultate\AN4SEM1\DS\Lab\Assignment4\Implementation\Java\package\src\main\java\services\PackageService.java
C:\Users\rares\Desktop\Facultate\AN4SEM1\DS\Lab\Assignment4\Implementation\Java\package\src\main\java\entities\Track.java
